{
    "numero": "14",
    "rutas": [{
            "ruta": "Tout",
            "icon": "view_module",
            "texto": "Tout",
            "isSelected": true
        },
        {
            "ruta": "Académique",
            "icon": "account_balance",
            "texto": "Académique",
            "isSelected": false
        },
        {
            "ruta": "Salons",
            "icon": "celebration",
            "texto": "Salons ou expositions",
            "isSelected": false

        },
        {
            "ruta": "Festivals",
            "icon": "music_note",
            "texto": "Festivals",
            "isSelected": false
        },
        {
            "ruta": "Sportifs",
            "icon": "sports_soccer",
            "texto": "Sportifs",
            "isSelected": false
        },
        {
            "ruta": "Journ",
            "icon": "class_",
            "texto": "Journée d'étude",
            "isSelected": false
        },
        {
            "ruta": "Artistique",
            "icon": "brush",
            "texto": "Artistique et culturel",
            "isSelected": false
        },
        {
            "ruta": "Vente",
            "icon": "euro",
            "texto": "Vente",
            "isSelected": false
        },
        {
            "ruta": "Sciences",
            "icon": "eco",
            "texto": "Sciences",
            "isSelected": false
        },
        {
            "ruta": "Technologie",
            "icon": "laptop_mac",
            "texto": "Technologie",
            "isSelected": false
        },
        {
            "ruta": "Format",
            "icon": "code",
            "texto": "Format hackathon",
            "isSelected": false
        },
        {
            "ruta": "Mode",
            "icon": "loyalty",
            "texto": "Mode",
            "isSelected": false
        },
        {
            "ruta": "Gastronomie",
            "icon": "dinner_dining",
            "texto": "Gastronomie",
            "isSelected": false
        },
        {
            "ruta": "Santé ou Beauté",
            "icon": "spa",
            "texto": "Santé ou Beauté",
            "isSelected": false
        }
    ]
}